# Blender v2.79 (sub 0) OBJ File: 'PineTree0.blend'
# www.blender.org
mtllib Boreal_TreeStump0.mtl
o Cone
v 0.010174 -0.003890 -0.132496
v 0.009763 -0.004602 -0.132496
v 0.009557 -0.004246 -0.132795
v 0.010174 -0.004602 -0.132496
v 0.010379 -0.004246 -0.132496
v 0.009763 -0.003890 -0.132795
v 0.048390 0.000000 -0.167731
v 0.025648 0.039391 -0.200854
v -0.019837 0.039391 -0.200854
v -0.042579 0.000000 -0.200854
v -0.019837 -0.039391 -0.200854
v 0.025648 -0.039391 -0.167731
v 0.092257 -0.000124 0.146140
v 0.047678 0.077088 0.146140
v -0.041479 0.077088 0.146140
v -0.086057 -0.000124 0.146140
v -0.047304 -0.073614 0.144415
v 0.047678 -0.077337 0.146140
vt 0.887705 0.265728
vt 0.847066 0.295393
vt 0.847066 0.295393
vt 0.887705 0.265728
vt 0.185170 0.350100
vt 0.225778 0.350100
vt 0.237304 0.615843
vt 0.173643 0.615843
vt 0.887588 0.029665
vt 0.846949 0.000000
vt 0.846949 0.000000
vt 0.887588 0.029665
vt 0.951290 0.000000
vt 0.910682 0.000000
vt 0.910682 0.000000
vt 0.951290 0.000000
vt 0.185170 0.350100
vt 0.225778 0.350100
vt 0.910682 0.462422
vt 0.951290 0.462422
vt 0.951290 0.462422
vt 0.910682 0.462422
vt 0.185170 0.881586
vt 0.225778 0.881586
vt 0.225778 0.881586
vt 0.185170 0.881586
vt 0.000000 0.903719
vt 0.055120 0.871626
vt 0.110241 0.903719
vt 0.110241 0.967906
vt 0.055120 1.000000
vt 0.000000 0.967907
vt 0.899155 0.531457
vt 0.835498 0.531457
vt 0.899155 0.244437
vt 0.962816 0.244437
vt 0.173643 0.615843
vt 0.962816 0.244437
vt 0.899155 0.244437
vt 0.899155 0.265728
vt 0.835498 0.265728
vn 0.3711 0.2867 -0.8832
vn 0.6564 -0.1888 -0.7304
vn -0.6075 -0.3422 -0.7168
vn -0.1426 -0.8169 -0.5589
vn -0.2391 0.4342 -0.8685
vn -0.5008 0.0078 -0.8655
vn -0.8228 0.0096 0.5682
vn -0.4161 0.7134 0.5638
vn 0.4757 -0.4801 -0.7370
vn -0.0830 -0.4484 -0.8900
vn 0.6367 0.5336 -0.5566
vn -0.0105 0.6990 -0.7150
vn 0.4025 -0.6791 -0.6138
vn 0.7902 -0.0096 -0.6128
vn 0.8303 -0.0154 0.5571
vn 0.4222 0.7079 0.5662
vn -0.4283 -0.7121 0.5563
vn 0.4160 -0.7207 0.5546
usemtl Material.001
s 1
f 8/1/1 7/2/2 3/3/3 2/4/4
f 9/5/5 10/6/6 16/7/7 15/8/8
f 12/9/9 11/10/10 1/11/11 6/12/12
f 9/13/5 8/14/1 2/15/4 4/16/13
f 10/6/6 9/5/5 4/17/13 5/18/14
f 7/19/2 12/20/9 6/21/12 3/22/3
f 11/23/10 10/24/6 5/25/14 1/26/11
f 13/27/15 14/28/16 15/29/8 16/30/7 17/31/17 18/32/18
f 7/2/2 8/1/1 14/33/16 13/34/15
f 12/20/9 7/19/2 13/35/15 18/36/18
f 10/24/6 11/23/10 17/37/17 16/7/7
f 8/14/1 9/13/5 15/38/8 14/39/16
f 11/10/10 12/9/9 18/40/18 17/41/17
